{
  "main": "org.vertx.mods.RabbitMQChannel",
  "worker": false,
  "multi-threaded": false,

  "description":"MongoDB persistor module for Vert.x",
  "licenses": ["The Apache Software License Version 2.0"],
  "author": "Sandeep",
  "keywords": ["mongo", "mongodb", "database", "databases", "persistence", "json", "nosql"],
  "homepage": "https://Google.com/"
}